-------------------------------------------------------------------------------
Test set: net.tncy.sardo2u.bookstore.AppTest
-------------------------------------------------------------------------------
Tests run: 1, Failures: 0, Errors: 0, Skipped: 0, Time elapsed: 0.028 s - in net.tncy.sardo2u.bookstore.AppTest
